<?xml version="1.0" encoding="utf-8"?>
<!-- Generator: Adobe Illustrator 21.0.0, SVG Export Plug-In . SVG Version: 6.00 Build 0)  -->
<svg version="1.1" id="Capa_1" xmlns="http://www.w3.org/2000/svg" xmlns:xlink="http://www.w3.org/1999/xlink" x="0px" y="0px"
	 viewBox="0 0 833.4 174.4" style="enable-background:new 0 0 833.4 174.4;" xml:space="preserve">
<style type="text/css">
	.st0{fill:#FFFFFF;}
	.st1{fill:none;stroke:#FFFFFF;stroke-width:19;stroke-linecap:round;stroke-miterlimit:10;}
	.st2{fill:none;stroke:#494949;stroke-miterlimit:10;}
</style>
<g>
	<path class="st0" d="M368.9,31.4c4.2,0,8.2,0.8,12.1,2.4c3.9,1.6,7.2,3.7,10.2,6.4c2.9,2.7,5.2,6,6.9,9.8c1.7,3.8,2.6,7.8,2.6,12.3
		v24.4c0,2.2-0.8,4.3-2.5,5.9c-1.6,1.7-3.7,2.6-6,2.6c-2.3,0-4.4-0.8-6.1-2.4c-1.7-1.6-2.6-3.5-2.6-5.9V63.2c0-2-0.4-3.9-1.2-5.7
		c-0.8-1.8-1.8-3.4-3.1-4.7c-1.3-1.3-3-2.3-4.7-3.1c-1.8-0.8-3.8-1.2-5.9-1.2c-2,0-3.8,0.4-5.5,1.2c-1.7,0.8-3.3,1.7-4.6,3
		c-1.3,1.2-2.4,2.7-3.1,4.4c-0.8,1.7-1.2,3.7-1.2,5.5v24c0,2.2-0.9,4.3-2.6,6c-1.7,1.7-3.8,2.6-6,2.6c-2.2,0-4.3-0.8-6-2.3
		c-1.7-1.6-2.6-3.5-2.6-5.7V63.2c0.1-4.4,0.9-8.5,2.6-12.4c1.6-3.9,3.9-7.2,6.7-10.2c2.9-2.9,6.3-5.2,10.1-6.8
		C360.1,32.2,364.3,31.4,368.9,31.4"/>
	<path class="st1" d="M321.5,53.6c0-21.8-17.8-39.6-39.6-39.6c-21.8,0-39.6,17.8-39.6,39.6c0,21.8,17.8,39.6,39.6,39.6
		c4,0,8-0.7,11.6-1.7"/>
	<path class="st0" d="M312,97.7c0.4,0,0.8-0.4,0.9-0.9l2.7-9.5l9,9c0.4,0.4,1,0.4,1.6-0.1l6.7-7.8c0.1-0.1,0.3-0.3,0.3-0.5
		c0.1-0.4,0-0.9-0.3-1.2l-9.4-9.4l7.7-6.4c0.4-0.3,0.5-0.8,0.4-1.2c0-0.4-0.4-0.8-0.8-0.9l-36.7-10.6c-0.4-0.1-0.9,0-1.2,0.4
		c-0.3,0.4-0.4,0.9-0.1,1.3l18,37C311.2,97.6,311.6,97.8,312,97.7"/>
	<path class="st2" d="M312,97.7c0.4,0,0.8-0.4,0.9-0.9l2.7-9.5l9,9c0.4,0.4,1,0.4,1.6-0.1l6.7-7.8c0.1-0.1,0.3-0.3,0.3-0.5
		c0.1-0.4,0-0.9-0.3-1.2l-9.4-9.4l7.7-6.4c0.4-0.3,0.5-0.8,0.4-1.2c0-0.4-0.4-0.8-0.8-0.9l-36.7-10.6c-0.4-0.1-0.9,0-1.2,0.4
		c-0.3,0.4-0.4,0.9-0.1,1.3l18,37C311.2,97.6,311.6,97.8,312,97.7z"/>
	<path class="st0" d="M429.2,103.3c1.3,0.7,2.5,1.3,3.4,2.1c1,0.9,2.1,2,2.9,3l-1.8,1.2c-0.7-0.9-1.4-1.8-2.4-2.6
		c-0.9-0.7-1.8-1.3-2.9-1.8c-1-0.5-2.4-0.8-3.8-0.8c-1.4,0-2.6,0.3-3.8,0.7c-1.2,0.4-2.1,1-2.9,1.8c-0.8,0.8-1.4,1.6-1.8,2.6
		c-0.4,1-0.7,2.1-0.7,3.3c0,1.8,0.5,3.3,1.6,4.3c1,1,2.4,2.1,3.9,2.7c1.6,0.8,3.3,1.4,5.1,2.2c1.8,0.7,3.5,1.4,5.1,2.4
		c1.6,0.9,2.9,2.1,3.9,3.4c1,1.3,1.6,3.1,1.6,5.4c0,1.6-0.3,3.1-0.9,4.6c-0.7,1.4-1.6,2.7-2.7,3.8c-1.2,1-2.5,2-4,2.6
		c-1.6,0.7-3.3,0.9-5.1,0.9c-2.4,0-4.4-0.4-6.1-1.2c-1.7-0.8-3.1-1.7-4.2-2.7c-1.3-1.2-2.4-2.5-3.1-3.9l1.8-1.2
		c0.7,1.3,1.6,2.5,2.7,3.5c1,0.9,2.2,1.8,3.7,2.5c1.4,0.7,3.1,1,5.2,1c1.6,0,3-0.3,4.3-0.8c1.3-0.5,2.5-1.3,3.4-2.1
		c0.9-0.8,1.7-2,2.2-3.1c0.5-1.2,0.8-2.5,0.8-3.8c0-1.8-0.5-3.4-1.6-4.6c-1-1.2-2.4-2.2-3.9-3c-1.6-0.8-3.3-1.6-5.1-2.2
		c-1.8-0.7-3.5-1.4-5.1-2.3c-1.6-0.9-2.9-2-3.9-3.3c-1-1.3-1.6-3-1.6-5.1c0-1.4,0.3-2.7,0.9-3.9c0.7-1.2,1.3-2.4,2.4-3.3
		c1-0.9,2.2-1.7,3.7-2.4c1.4-0.5,2.9-0.9,4.4-0.9C426.2,102.4,427.8,102.7,429.2,103.3"/>
	<path class="st0" d="M443.1,136.9c0.7,1.2,1.4,2.4,2.4,3.3c0.9,0.9,2,1.7,3.1,2.2c1.2,0.5,2.2,0.8,3.4,0.8c1.6,0,2.9-0.3,4-0.9
		c1.2-0.5,2.1-1.2,2.9-1.8c0.9-0.8,1.7-1.7,2.2-2.7l1.8,0.9c-0.8,1.3-1.6,2.4-2.7,3.4c-0.9,0.9-2.1,1.7-3.5,2.4c-1.3,0.7-3,1-4.8,1
		c-1.6,0-3.1-0.4-4.6-1c-1.4-0.7-2.7-1.6-3.9-2.9c-1.2-1.2-2-2.6-2.7-4.2c-0.7-1.6-1-3.3-1-5.1c0-1.8,0.4-3.5,1-5.1
		c0.7-1.6,1.6-3,2.7-4.2c1.2-1.2,2.5-2.1,3.9-2.9c1.4-0.7,3-1,4.6-1c1.6,0,3,0.3,4.4,0.9c1.4,0.7,2.7,1.6,3.8,2.7
		c1.2,1.2,2,2.5,2.7,4c0.7,1.6,1,3.3,1,5.1l-1.2,1.2h-20.8C442,134.3,442.4,135.6,443.1,136.9 M448.4,121.9
		c-1.2,0.5-2.2,1.3-3.1,2.1c-0.9,0.8-1.7,2-2.4,3.1c-0.7,1.2-1,2.5-1.2,3.8h19.8c-0.1-1.3-0.5-2.5-1-3.8c-0.5-1.3-1.3-2.2-2.2-3.1
		c-0.9-0.9-1.8-1.6-3-2.1c-1.2-0.5-2.4-0.8-3.5-0.8C450.6,121.1,449.6,121.3,448.4,121.9"/>
	<path class="st0" d="M472.3,138.7c-0.3,0.3-0.7,0.5-0.8,0.9c-0.3,0.4-0.3,0.8-0.3,1.3c0,0.5,0.1,0.9,0.4,1.3
		c0.3,0.4,0.5,0.7,0.8,0.9c0.3,0.3,0.7,0.4,1,0.5c0.4-0.1,0.8-0.3,1.3-0.3c0.4-0.1,0.9-0.1,1.4-0.3c0.5,0,1.2-0.1,1.8-0.1
		c1.8,0,3.5,0.3,5,0.8c1.4,0.5,2.7,1.2,3.8,2.1c1,0.9,1.8,1.8,2.4,2.9c0.5,1,0.8,2.2,0.8,3.4c0,1.2-0.3,2.2-0.8,3.4
		c-0.5,1-1.3,2.1-2.4,2.9c-1,0.9-2.4,1.6-3.8,2.1c-1.4,0.5-3.1,0.8-5,0.8c-1.8,0-3.5-0.3-5-0.8c-1.4-0.5-2.7-1.2-3.8-2.1
		c-1-0.9-1.8-1.8-2.4-2.9c-0.5-1-0.8-2.2-0.8-3.4c0-1.3,0.3-2.5,0.8-3.4c0.5-0.9,1.2-1.7,1.8-2.3c0.8-0.8,1.6-1.4,2.6-1.8
		c-0.4-0.3-0.8-0.5-1-0.8c-0.3-0.3-0.7-0.7-0.8-1.2c-0.3-0.4-0.3-1-0.3-1.7s0.1-1.3,0.4-1.8c0.3-0.5,0.5-0.9,0.8-1.2
		c0.3-0.4,0.7-0.8,1-0.9c-0.7-0.4-1.3-1-1.8-1.7c-0.5-0.7-0.9-1.4-1.3-2.4c-0.4-0.9-0.5-2-0.5-3.3c0-1.3,0.3-2.5,0.8-3.7
		c0.5-1.2,1.2-2.1,2.1-3s2-1.6,3.3-2.1c1.3-0.5,2.6-0.8,4.2-0.8h10.7v2.1h-4.4v0.3c0.8,0.4,1.4,1,2.1,1.7c0.5,0.7,1,1.3,1.4,2.2
		c0.4,0.9,0.7,2,0.7,3.1c0,1.3-0.3,2.5-0.8,3.7c-0.5,1.2-1.2,2.1-2.1,3c-0.9,0.9-2,1.6-3.3,2.1c-1.3,0.5-2.6,0.8-4.2,0.8
		c-0.7,0-1.3,0-1.8-0.1c-0.5-0.1-1-0.3-1.4-0.4c-0.5-0.1-0.9-0.3-1.3-0.4C473,138.2,472.6,138.5,472.3,138.7 M486.9,149.7
		c-0.4-0.8-1-1.6-2-2.2c-0.8-0.7-1.8-1.2-3-1.6c-1.2-0.4-2.6-0.7-4.2-0.7c-1.6,0-3,0.3-4.2,0.7c-1.2,0.4-2.2,0.9-3.1,1.6
		c-0.8,0.7-1.4,1.4-1.8,2.2c-0.4,0.8-0.7,1.7-0.7,2.5c0,0.8,0.3,1.7,0.7,2.5c0.4,0.8,1,1.6,2,2.2c0.9,0.7,1.8,1.2,3.1,1.6
		c1.3,0.4,2.6,0.7,4,0.7c1.6,0,2.9-0.3,4.2-0.7c1.3-0.4,2.2-0.9,3-1.6c0.8-0.7,1.4-1.4,2-2.2c0.5-0.8,0.7-1.7,0.7-2.5
		C487.6,151.4,487.5,150.5,486.9,149.7 M485.5,126.7c-0.4-0.9-0.9-1.7-1.7-2.4c-0.7-0.7-1.6-1.2-2.6-1.6c-1-0.4-2.1-0.5-3.4-0.5
		c-1.2,0-2.4,0.1-3.4,0.5c-1,0.4-1.8,0.9-2.6,1.6c-0.7,0.7-1.3,1.4-1.7,2.4c-0.4,0.9-0.7,1.8-0.7,2.7c0,0.9,0.3,2,0.7,2.9
		c0.4,0.9,0.9,1.7,1.7,2.4c0.7,0.7,1.6,1.2,2.6,1.6c1,0.4,2.1,0.5,3.4,0.5c1.2,0,2.3-0.1,3.4-0.5c1-0.4,1.8-0.9,2.6-1.6
		c0.7-0.7,1.3-1.4,1.7-2.4c0.4-0.9,0.7-1.8,0.7-2.9C486.1,128.4,485.9,127.6,485.5,126.7"/>
	<path class="st0" d="M513,143.9v-4.3h-0.3c-0.5,1-1.2,2-2,2.7c-0.8,0.8-1.6,1.4-2.7,2c-1,0.5-2.4,0.8-3.9,0.8
		c-1.3,0-2.5-0.3-3.8-0.8s-2.2-1.3-3.1-2.2c-0.9-0.9-1.6-2-2.1-3.3c-0.5-1.2-0.8-2.5-0.8-3.9v-15h2.1v15.1c0,1.2,0.1,2.2,0.5,3.1
		c0.4,0.9,0.9,1.8,1.6,2.5s1.6,1.3,2.5,1.7c0.9,0.4,2,0.7,3,0.7c1.2,0,2.2-0.3,3.3-0.8c1-0.5,2-1.2,2.9-2c0.9-0.8,1.4-1.7,2-2.7
		c0.5-1,0.8-2.1,0.8-3.1V120h2.1v23.8h-2V143.9z"/>
	<path class="st0" d="M529.5,121.7c-0.9,0.4-1.7,1-2.5,1.8c-0.8,0.8-1.3,1.7-1.8,2.6c-0.4,1-0.7,2-0.7,3.1v14.6h-2.1v-23.8h2.1v4.3
		h0.3c0.5-1,1-2,1.8-2.7c0.7-0.8,1.4-1.4,2.4-2c0.9-0.5,2-0.8,3.1-0.8c0.4,0,0.9,0,1.3,0.1c0.4,0,0.7,0.1,0.9,0.3
		c0.3,0.1,0.7,0.1,0.9,0.3l-0.7,2.1c-0.3-0.1-0.5-0.3-0.8-0.3c-0.3-0.1-0.5-0.1-0.8-0.3c-0.3,0-0.5-0.1-0.9-0.1
		C531.3,121.1,530.4,121.2,529.5,121.7"/>
	<path class="st0" d="M544.3,144.1c-1.6-0.7-2.9-1.6-4-2.9c-1.2-1.2-2.1-2.6-2.7-4.2c-0.7-1.6-1-3.3-1-5.1c0-1.8,0.4-3.5,1-5.1
		s1.6-3,2.7-4.2c1.2-1.2,2.5-2.1,4-2.9c1.6-0.7,3.1-1,4.8-1c1.7,0,3.3,0.4,4.8,1c1.6,0.7,2.9,1.6,4,2.9c1.2,1.2,2.1,2.6,2.7,4.2
		s1,3.3,1,5.1c0,1.8-0.4,3.5-1,5.1c-0.7,1.6-1.6,3-2.7,4.2c-1.2,1.2-2.5,2.1-4,2.9c-1.6,0.7-3.1,1-4.8,1
		C547.4,145.1,545.7,144.9,544.3,144.1 M552.9,142.1c1.3-0.5,2.4-1.3,3.3-2.4c0.9-1,1.7-2.2,2.4-3.5c0.7-1.3,0.9-2.7,0.9-4.3
		c0-1.6-0.3-3-0.9-4.3s-1.3-2.5-2.4-3.5c-0.9-1-2.1-1.8-3.3-2.4c-1.3-0.5-2.6-0.9-3.9-0.9s-2.7,0.3-3.9,0.9
		c-1.3,0.5-2.4,1.3-3.3,2.4c-0.9,1-1.7,2.2-2.4,3.5s-0.9,2.7-0.9,4.3c0,1.6,0.3,2.9,0.9,4.3c0.7,1.3,1.4,2.5,2.4,3.5
		c0.9,1,2.1,1.8,3.3,2.4c1.2,0.5,2.5,0.9,3.8,0.9S551.6,142.8,552.9,142.1"/>
	<path class="st0" d="M575.5,142.5c0.9-0.3,1.6-0.8,2.2-1.3c0.7-0.5,1-1.2,1.4-1.8c0.3-0.7,0.5-1.3,0.5-2c0-1-0.4-2-1-2.5
		c-0.8-0.7-1.7-1.2-2.7-1.6s-2.2-0.8-3.5-1.2c-1.3-0.4-2.5-0.8-3.5-1.4c-1-0.5-2-1.3-2.7-2.1c-0.8-0.8-1-2-1-3.4
		c0-0.8,0.3-1.6,0.7-2.4c0.4-0.8,0.9-1.4,1.7-2.1c0.7-0.7,1.6-1,2.6-1.4c1-0.4,2.1-0.5,3.4-0.5c1.4,0,2.6,0.3,3.5,0.7
		c1,0.4,1.8,0.9,2.5,1.4c0.8,0.7,1.3,1.3,1.8,2.1l-1.6,1.2c-0.5-0.7-1-1.2-1.7-1.7c-0.7-0.4-1.3-0.8-2.1-1.2
		c-0.8-0.3-1.7-0.5-2.6-0.5c-2,0-3.5,0.4-4.6,1.3c-1,0.9-1.6,1.8-1.6,2.9c0,1,0.4,2,1,2.5c0.8,0.7,1.7,1.2,2.7,1.6
		c1,0.4,2.2,0.8,3.5,1.2c1.3,0.4,2.5,0.8,3.5,1.4c1,0.5,2,1.3,2.7,2.1c0.8,0.9,1,2,1,3.4c0,0.9-0.3,2-0.7,2.9
		c-0.4,0.9-1,1.7-1.8,2.5c-0.8,0.7-1.7,1.3-2.9,1.7c-1.2,0.4-2.4,0.7-3.8,0.7c-1.6,0-2.9-0.3-4-0.9c-1.2-0.5-2.1-1.2-2.7-1.8
		c-0.9-0.8-1.7-1.7-2.4-2.7l1.6-1.2c0.5,0.9,1.3,1.6,2,2.2s1.4,1.2,2.4,1.7c0.9,0.4,2,0.7,3.3,0.7
		C573.5,143,574.6,142.9,575.5,142.5"/>
	<path class="st0" d="M412.5,13.1c2.4,0,4.3,0.8,5.9,2.5c1.6,1.7,2.5,3.7,2.6,6.1v51.2c0,1.7,0.5,3.3,1.7,4.4
		c1.2,1.2,2.6,1.8,4.3,1.8c2.2,0,4.2,0.8,5.9,2.3c1.7,1.6,2.6,3.5,2.6,5.9c0,2.1-0.7,3.9-2.1,5.5c-1.4,1.6-3.3,2.6-5.5,2.9h-1.8
		c-3,0-5.9-0.7-8.6-1.8c-2.7-1.3-5.1-2.9-7.1-5c-2.1-2.1-3.7-4.4-4.8-7.3c-1.2-2.7-1.7-5.6-1.7-8.7V21.2c0.3-2.2,1.2-4,2.7-5.6
		C408.2,14,410.2,13.2,412.5,13.1"/>
	<path class="st0" d="M445.8,13.4c2.2,0,4.2,0.8,5.7,2.5c1.6,1.7,2.4,3.7,2.4,5.9c0,2.2-0.8,4.2-2.4,5.9c-1.6,1.7-3.5,2.5-5.7,2.5
		c-2.5-0.1-4.6-0.9-6.1-2.4c-1.6-1.6-2.4-3.7-2.4-6.4c0.1-2.2,0.9-4.2,2.6-5.7C441.6,14.1,443.6,13.4,445.8,13.4 M445.8,33.2
		c2.2,0,4.2,0.8,5.6,2.5c1.6,1.7,2.4,3.7,2.5,6v46c0,2.4-0.8,4.3-2.2,5.9c-1.4,1.6-3.4,2.5-6,2.6c-2.2,0-4.2-0.7-5.7-2.1
		c-1.6-1.4-2.5-3.3-2.9-5.9V41.3c0.1-2.2,1-4,2.7-5.6C441.6,34.1,443.6,33.3,445.8,33.2"/>
	<path class="st0" d="M488.5,32.4c4.2,0,8.1,0.8,11.9,2.2c3.8,1.6,7.2,3.7,9.9,6.4c2.9,2.7,5.1,6,6.9,9.7c1.7,3.7,2.6,7.7,2.6,12v24
		c0,2.2-0.8,4.2-2.4,5.9c-1.6,1.7-3.5,2.5-5.9,2.6c-2.4,0-4.3-0.8-6-2.2c-1.7-1.4-2.5-3.4-2.5-5.7V63.9c0-2-0.4-3.9-1-5.6
		c-0.8-1.8-1.8-3.3-3.1-4.6c-1.3-1.3-2.9-2.4-4.7-3.1c-1.8-0.8-3.7-1.2-5.7-1.2c-2,0-3.7,0.4-5.5,1c-1.7,0.8-3.3,1.7-4.6,2.9
		c-1.3,1.2-2.4,2.7-3.1,4.4c-0.8,1.7-1.2,3.5-1.2,5.5v23.5c0,2.2-0.9,4.2-2.6,5.9c-1.7,1.7-3.7,2.5-6,2.5c-2.2,0-4.2-0.8-6-2.4
		c-1.7-1.6-2.6-3.4-2.6-5.7V63.6c0.1-4.3,0.9-8.4,2.5-12.1c1.6-3.8,3.8-7.2,6.7-9.9c2.9-2.9,6.1-5.1,9.9-6.8
		C479.9,33.2,484.1,32.4,488.5,32.4"/>
	<path class="st0" d="M534.3,39.1c3.3-2.5,7.1-4.2,11.1-5.1c4-0.9,8.1-1,12.1-0.4c4,0.7,7.8,1.8,11.5,3.9c3.7,2,6.7,4.6,9.1,8
		c1.3,1.8,1.7,3.8,1.2,5.7c-0.5,2-2,3.8-3.9,5.2l-27.7,20.6c5.2,2.2,9.9,1.8,13.8-1.2c1-0.8,2-1.6,2.6-2.4c0.7-0.8,1-1.6,1.4-2.2
		c0.4-0.7,0.8-1.4,1.2-2.1c0.4-0.7,1-1.3,1.8-1.8c1.6-1,3.1-1.6,4.7-1.6c1.7,0,3.1,0.3,4.6,1c1.4,0.8,2.5,1.8,3.3,3.3
		c0.8,1.4,1,3.1,0.9,5c-0.8,2.9-2,5.5-3.9,7.8c-1.8,2.4-4,4.4-6.5,6.4c-3.3,2.6-6.9,4.4-11,5.4c-4,0.9-8.1,1-12.1,0.5
		c-4-0.7-8-2-11.6-4c-3.7-2.1-6.8-4.8-9.3-8.1c-2.5-3.3-4-6.9-5.1-11c-0.9-4-1-8.1-0.5-12.1c0.5-4,1.8-7.8,3.9-11.5
		C528.2,44.7,530.9,41.6,534.3,39.1 M558.2,51.4c-2.7-1.3-5.4-1.7-7.6-1.4c-2.2,0.3-4.3,1.2-6.3,2.6c-2,1.4-3.5,3.3-4.4,5.4
		c-0.9,2.1-1.2,4.6-0.8,7.6L558.2,51.4z"/>
</g>
</svg>
